{
    button0: "south"            // A, Green
    button1: "east"             // B, Red
    button2: "west"             // X, Blue
    button3: "north"            // Y, Yellow
    button4: "right1"           // RB, Right shoulder
    button5: "left1"            // LB, Left shoulder
    button6: "rstick"           // RT, Right thumb stick
    button7: "lstick"           // LT, Left thumb stick
    button8: "back"             // Back
    button9: "start"            // Start
    button10: "dpadr"            // D-Pad Right
    button11: "dpadl"            // D-Pad Left
    button12: "dpadd"            // D-Pad Down
    button13: "dpadu"            // D-Pad Up

    axis0p: "leftx+"            // Left thumbstick
    axis0n: "leftx-"            //
    axis1p: "lefty+"            //
    axis1n: "lefty-"            //
    axis2p: "rightx+"           // Right thumbstick
    axis2n: "rightx-"           //
    axis3p: "righty+"           //
    axis3n: "righty-"           //
    axis4p: "ltrig"             // Left trigger
    axis5p: "rtrig"             // Right trigger
}

//Using controller mapping: xinput.controller
//  Stick 0
//    Axis 0+ ("X") => leftx+
//    Axis 0- ("X") => leftx-
//    Axis 1+ ("Y") => lefty+
//    Axis 1- ("Y") => lefty-
//  Stick 1
//    Axis 0+ ("X") => rightx+
//    Axis 0- ("X") => rightx-
//    Axis 1+ ("Y") => righty+
//    Axis 1- ("Y") => righty-
//  Stick 2
//    Axis 0+ ("Ramp") =>
//    Axis 0- ("Ramp") =>
//  Stick 3
//    Axis 0+ ("Ramp") =>
//    Axis 0- ("Ramp") =>
//  Button 0 ("A") => south
//  Button 1 ("B") => east
//  Button 2 ("X") => west
//  Button 3 ("Y") => north
//  Button 4 ("RB") => right1
//  Button 5 ("LB") => left1
//  Button 6 ("RT") =>
//  Button 7 ("LT") =>
//  Button 8 ("BACK") => back
//  Button 9 ("START") => start
//  Button 10 ("RIGHT DPAD") =>
//  Button 11 ("LEFT DPAD") =>
//  Button 12 ("DOWN DPAD") =>
//  Button 13 ("UP DPAD") =>
