[

{Emitter: "StunnerBlast1"
    Properties: {
        lifespan: 210
        texture: "particles:phaze-blast1"
        additive: false
    }
}

// Debris thrown out around the stunner blast
{Emitter: "StunnerBlast2"
    Properties: {
        lifespan: 250, lifespanVar: 200
        angleVar: 360
        speed: 96, speedVar: 64
        size1: 2.5, size1Var: 2
        color1: "#00ff00", color1Var: "#ff00ff"
        color2: "#00ff0000"
        texture: "particles:pixel"
        additive: false
        light1: 0.9, light1Var: 0.2
        light2: 0.3, light2Var: 0.2
    }
}

]